HW4
…
── Attaching core tidyverse packages ──────────────────────── tidyverse 2.0.0 ──
✔ dplyr     1.1.4     ✔ readr     2.1.5
✔ forcats   1.0.0     ✔ stringr   1.5.1
✔ ggplot2   3.5.1     ✔ tibble    3.2.1
✔ lubridate 1.9.3     ✔ tidyr     1.3.1
✔ purrr     1.0.2     
── Conflicts ────────────────────────────────────────── tidyverse_conflicts() ──
✖ dplyr::filter() masks stats::filter()
✖ dplyr::lag()    masks stats::lag()
ℹ Use the conflicted package (<http://conflicted.r-lib.org/>) to force all conflicts to become errors

arrange(filter(select(as_tibble(iris), starts_with("Petal"), Species), Petal.Length < 
1.55), Species) #checking how original code outputs

# A tibble: 37 × 3
   Petal.Length Petal.Width Species
          <dbl>       <dbl> <fct>  
 1          1.4         0.2 setosa 
 2          1.4         0.2 setosa 
 3          1.3         0.2 setosa 
 4          1.5         0.2 setosa 
 5          1.4         0.2 setosa 
 6          1.4         0.3 setosa 
 7          1.5         0.2 setosa 
 8          1.4         0.2 setosa 
 9          1.5         0.1 setosa 
10          1.5         0.2 setosa 
# ℹ 27 more rows

Rewriting the nested function call using Base R’s pipe

iris <- data.frame(iris)

iris |>
  as_tibble() |>
  select(starts_with("Petal"), Species) |>
  filter(Petal.Length < 1.55) |>
  arrange(Species)

# A tibble: 37 × 3
   Petal.Length Petal.Width Species
          <dbl>       <dbl> <fct>  
 1          1.4         0.2 setosa 
 2          1.4         0.2 setosa 
 3          1.3         0.2 setosa 
 4          1.5         0.2 setosa 
 5          1.4         0.2 setosa 
 6          1.4         0.3 setosa 
 7          1.5         0.2 setosa 
 8          1.4         0.2 setosa 
 9          1.5         0.1 setosa 
10          1.5         0.2 setosa 
# ℹ 27 more rows
…
yeast

# A tibble: 1,484 × 10
   X1            X2    X3    X4    X5    X6    X7    X8    X9 X10  
   <chr>      <dbl> <dbl> <dbl> <dbl> <dbl> <dbl> <dbl> <dbl> <chr>
 1 ADT1_YEAST  0.58  0.61  0.47  0.13   0.5   0    0.48  0.22 MIT  
 2 ADT2_YEAST  0.43  0.67  0.48  0.27   0.5   0    0.53  0.22 MIT  
 3 ADT3_YEAST  0.64  0.62  0.49  0.15   0.5   0    0.53  0.22 MIT  
 4 AAR2_YEAST  0.58  0.44  0.57  0.13   0.5   0    0.54  0.22 NUC  
 5 AATM_YEAST  0.42  0.44  0.48  0.54   0.5   0    0.48  0.22 MIT  
 6 AATC_YEAST  0.51  0.4   0.56  0.17   0.5   0.5  0.49  0.22 CYT  
 7 ABC1_YEAST  0.5   0.54  0.48  0.65   0.5   0    0.53  0.22 MIT  
 8 BAF1_YEAST  0.48  0.45  0.59  0.2    0.5   0    0.58  0.34 NUC  
 9 ABF2_YEAST  0.55  0.5   0.66  0.36   0.5   0    0.49  0.22 MIT  
10 ABP1_YEAST  0.4   0.39  0.6   0.15   0.5   0    0.58  0.3  CYT  
# ℹ 1,474 more rows
…
Task 2: Combining Excel and Delimited Data

Reading in white wine data set

library(readxl) #Loading in readxl package

white <- read_excel("white-wine.xlsx")
white

# A tibble: 4,898 × 12
   `fixed acidity` `volatile acidity` `citric acid` `residual sugar` chlorides
             <dbl>              <dbl>         <dbl>            <dbl>     <dbl>
 1               7               0.27          0.36             20.7     0.045
 2              63               0.3           0.34              1.6     0.049
 3              81               0.28          0.4               6.9     0.05 
 4              72               0.23          0.32              8.5     0.058
 5              72               0.23          0.32              8.5     0.058
 6              81               0.28          0.4               6.9     0.05 
 7              62               0.32          0.16              7       0.045
 8               7               0.27          0.36             20.7     0.045
 9              63               0.3           0.34              1.6     0.049
10              81               0.22          0.43              1.5     0.044
# ℹ 4,888 more rows
# ℹ 7 more variables: `free sulfur dioxide` <dbl>,
#   `total sulfur dioxide` <dbl>, density <dbl>, pH <dbl>, sulphates <dbl>,
#   alcohol <dbl>, quality <dbl>
…
library(janitor) #package that assist with making fixing names easier. I know this is "wrong" I just already did it before I read on for HW4

Attaching package: 'janitor'

The following objects are masked from 'package:stats':

    chisq.test, fisher.test

white <- white |> 
  janitor::clean_names() |>
  rename(pH = p_h) #correcting clean_names() |>

white

# A tibble: 4,898 × 12
   fixed_acidity volatile_acidity citric_acid residual_sugar chlorides
           <dbl>            <dbl>       <dbl>          <dbl>     <dbl>
 1             7             0.27        0.36           20.7     0.045
 2            63             0.3         0.34            1.6     0.049
 3            81             0.28        0.4             6.9     0.05 
 4            72             0.23        0.32            8.5     0.058
 5            72             0.23        0.32            8.5     0.058
 6            81             0.28        0.4             6.9     0.05 
 7            62             0.32        0.16            7       0.045
 8             7             0.27        0.36           20.7     0.045
 9            63             0.3         0.34            1.6     0.049
10            81             0.22        0.43            1.5     0.044
# ℹ 4,888 more rows
# ℹ 7 more variables: free_sulfur_dioxide <dbl>, total_sulfur_dioxide <dbl>,
#   density <dbl>, pH <dbl>, sulphates <dbl>, alcohol <dbl>, quality <dbl>

had to do the mutate() seperately as it was not running correctly for some reason

white <- white |>
  mutate(wine_type = "white_wine")
white

# A tibble: 4,898 × 13
   fixed_acidity volatile_acidity citric_acid residual_sugar chlorides
           <dbl>            <dbl>       <dbl>          <dbl>     <dbl>
 1             7             0.27        0.36           20.7     0.045
 2            63             0.3         0.34            1.6     0.049
 3            81             0.28        0.4             6.9     0.05 
 4            72             0.23        0.32            8.5     0.058
 5            72             0.23        0.32            8.5     0.058
 6            81             0.28        0.4             6.9     0.05 
 7            62             0.32        0.16            7       0.045
 8             7             0.27        0.36           20.7     0.045
 9            63             0.3         0.34            1.6     0.049
10            81             0.22        0.43            1.5     0.044
# ℹ 4,888 more rows
# ℹ 8 more variables: free_sulfur_dioxide <dbl>, total_sulfur_dioxide <dbl>,
#   density <dbl>, pH <dbl>, sulphates <dbl>, alcohol <dbl>, quality <dbl>,
#   wine_type <chr>
…
Rows: 1599 Columns: 12

── Column specification ────────────────────────────────────────────────────────
Delimiter: ";"
chr (5): volatile acidity, citric acid, chlorides, density, sulphates
dbl (2): total sulfur dioxide, quality
num (5): fixed acidity, residual sugar, free sulfur dioxide, pH, alcohol

ℹ Use `spec()` to retrieve the full column specification for this data.
ℹ Specify the column types or set `show_col_types = FALSE` to quiet this message.

red

# A tibble: 1,599 × 12
   `fixed acidity` `volatile acidity` `citric acid` `residual sugar` chlorides
             <dbl> <chr>              <chr>                    <dbl> <chr>    
 1              74 0.7                0                           19 0.076    
 2              78 0.88               0                           26 0.098    
 3              78 0.76               0.04                        23 0.092    
 4             112 0.28               0.56                        19 0.075    
 5              74 0.7                0                           19 0.076    
 6              74 0.66               0                           18 0.075    
 7              79 0.6                0.06                        16 0.069    
 8              73 0.65               0                           12 0.065    
 9              78 0.58               0.02                         2 0.073    
10              75 0.5                0.36                        61 0.071    
# ℹ 1,589 more rows
# ℹ 7 more variables: `free sulfur dioxide` <dbl>,
#   `total sulfur dioxide` <dbl>, density <chr>, pH <dbl>, sulphates <chr>,
#   alcohol <dbl>, quality <dbl>

Fixing column names

red <- red |> 
  janitor::clean_names() |>
  rename(pH = p_h) #correcting clean_names()
  
red

# A tibble: 1,599 × 12
   fixed_acidity volatile_acidity citric_acid residual_sugar chlorides
           <dbl> <chr>            <chr>                <dbl> <chr>    
 1            74 0.7              0                       19 0.076    
 2            78 0.88             0                       26 0.098    
 3            78 0.76             0.04                    23 0.092    
 4           112 0.28             0.56                    19 0.075    
 5            74 0.7              0                       19 0.076    
 6            74 0.66             0                       18 0.075    
 7            79 0.6              0.06                    16 0.069    
 8            73 0.65             0                       12 0.065    
 9            78 0.58             0.02                     2 0.073    
10            75 0.5              0.36                    61 0.071    
# ℹ 1,589 more rows
# ℹ 7 more variables: free_sulfur_dioxide <dbl>, total_sulfur_dioxide <dbl>,
#   density <chr>, pH <dbl>, sulphates <chr>, alcohol <dbl>, quality <dbl>

Creating new varible called wine_type

red <- red |> #turning all columns into numeric
    mutate_all(as.numeric) |>
    mutate(
      wine_type = "red_wine"
    )
red

# A tibble: 1,599 × 13
   fixed_acidity volatile_acidity citric_acid residual_sugar chlorides
           <dbl>            <dbl>       <dbl>          <dbl>     <dbl>
 1            74             0.7         0                19     0.076
 2            78             0.88        0                26     0.098
 3            78             0.76        0.04             23     0.092
 4           112             0.28        0.56             19     0.075
 5            74             0.7         0                19     0.076
 6            74             0.66        0                18     0.075
 7            79             0.6         0.06             16     0.069
 8            73             0.65        0                12     0.065
 9            78             0.58        0.02              2     0.073
10            75             0.5         0.36             61     0.071
# ℹ 1,589 more rows
# ℹ 8 more variables: free_sulfur_dioxide <dbl>, total_sulfur_dioxide <dbl>,
#   density <dbl>, pH <dbl>, sulphates <dbl>, alcohol <dbl>, quality <dbl>,
#   wine_type <chr>

Combining both data sets

red_white <- bind_rows(list(white, red), .id = "id")
red_white

# A tibble: 6,497 × 14
   id    fixed_acidity volatile_acidity citric_acid residual_sugar chlorides
   <chr>         <dbl>            <dbl>       <dbl>          <dbl>     <dbl>
 1 1                 7             0.27        0.36           20.7     0.045
 2 1                63             0.3         0.34            1.6     0.049
 3 1                81             0.28        0.4             6.9     0.05 
 4 1                72             0.23        0.32            8.5     0.058
 5 1                72             0.23        0.32            8.5     0.058
 6 1                81             0.28        0.4             6.9     0.05 
 7 1                62             0.32        0.16            7       0.045
 8 1                 7             0.27        0.36           20.7     0.045
 9 1                63             0.3         0.34            1.6     0.049
10 1                81             0.22        0.43            1.5     0.044
# ℹ 6,487 more rows
# ℹ 8 more variables: free_sulfur_dioxide <dbl>, total_sulfur_dioxide <dbl>,
#   density <dbl>, pH <dbl>, sulphates <dbl>, alcohol <dbl>, quality <dbl>,
#   wine_type <chr>

Creating new chain to modify red_white to find high quality wines with a quality over 6.5 and alcohol less than 132

red_white <- red_white |>
  filter(quality > 6.5 & alcohol < 132) |>
  arrange(desc(quality)) |>
  select(citric_acid, alcohol, wine_type, quality) |>
  group_by(quality) |>
  mutate(
    across(alcohol, list(mean = mean, standard_deviation = sd))
  )
red_white

# A tibble: 1,198 × 6
# Groups:   quality [3]
   citric_acid alcohol wine_type  quality alcohol_mean alcohol_standard_deviat…¹
         <dbl>   <dbl> <chr>        <dbl>        <dbl>                     <dbl>
 1        0.45     104 white_wine       9         122.                      10.1
 2        0.29     124 white_wine       9         122.                      10.1
 3        0.36     125 white_wine       9         122.                      10.1
 4        0.34     127 white_wine       9         122.                      10.1
 5        0.49     129 white_wine       9         122.                      10.1
 6        0.48     128 white_wine       8         102.                      36.8
 7        0.48     128 white_wine       8         102.                      36.8
 8        0.42     105 white_wine       8         102.                      36.8
 9        0.31     107 white_wine       8         102.                      36.8
10        0.31     107 white_wine       8         102.                      36.8
# ℹ 1,188 more rows
# ℹ abbreviated name: ¹​alcohol_standard_deviation
